Colonial Past
…
## Warning in dir.create("data"): 'data' findes allerede

write.csv(colonized_data, "data/colonized_countries.csv", row.names = FALSE)
read_csv("data/colonized_countries.csv")

## Rows: 30 Columns: 3
## ── Column specification ────────────────────────────────────────────────────────
## Delimiter: ","
## chr (2): Country, Colonial_Overlord
## dbl (1): Years_of_Colonization
## 
## ℹ Use `spec()` to retrieve the full column specification for this data.
## ℹ Specify the column types or set `show_col_types = FALSE` to quiet this message.

## # A tibble: 30 × 3
##    Country          Colonial_Overlord Years_of_Colonization
##    <chr>            <chr>                             <dbl>
##  1 India            United Kingdom                      190
##  2 Australia        United Kingdom                      132
##  3 Hong Kong, China United Kingdom                      156
##  4 Canada           United Kingdom                      108
##  5 South Africa     United Kingdom                      120
##  6 Algeria          France                              132
##  7 Vietnam          France                               67
##  8 Morocco          France                               44
##  9 Brazil           Portugal                            322
## 10 Mozambique       Portugal                            477
## # ℹ 20 more rows
…
# Save the dataframe as CSV
write.csv(not_colonized_data, "data/not_colonized_countries.csv", row.names = FALSE)
read_csv("data/not_colonized_countries.csv")

## Rows: 26 Columns: 2
## ── Column specification ────────────────────────────────────────────────────────
## Delimiter: ","
## chr (2): Country, Reasonably_Prosperous
## 
## ℹ Use `spec()` to retrieve the full column specification for this data.
## ℹ Specify the column types or set `show_col_types = FALSE` to quiet this message.

## # A tibble: 26 × 2
##    Country      Reasonably_Prosperous
##    <chr>        <chr>                
##  1 Japan        YES                  
##  2 Korea, Rep.  YES                  
##  3 Thailand     YES                  
##  4 Turkey       YES                  
##  5 Saudi Arabia YES                  
##  6 Iran         YES                  
##  7 Iceland      YES                  
##  8 Sweden       YES                  
##  9 Norway       YES                  
## 10 Switzerland  YES                  
## # ℹ 16 more rows
…
not_colonized_summary <- not_colonized_ntiles %>% 
  group_by(year, quantileGdp) %>% 
    summarize(gdpPerGroup = sum(gdpPercap),
              meangdpPerGroup = mean(gdpPercap))

## `summarise()` has grouped output by 'year'. You can override using the
## `.groups` argument.

not_colonized_ntiles

## # A tibble: 288 × 9
## # Groups:   year [12]
##    Country Reasonably_Prosperous continent  year lifeExp       pop gdpPercap
##    <chr>   <chr>                 <fct>     <int>   <dbl>     <int>     <dbl>
##  1 Japan   YES                   Asia       1952    63.0  86459025     3217.
##  2 Japan   YES                   Asia       1957    65.5  91563009     4318.
##  3 Japan   YES                   Asia       1962    68.7  95831757     6577.
##  4 Japan   YES                   Asia       1967    71.4 100825279     9848.
##  5 Japan   YES                   Asia       1972    73.4 107188273    14779.
##  6 Japan   YES                   Asia       1977    75.4 113872473    16610.
##  7 Japan   YES                   Asia       1982    77.1 118454974    19384.
##  8 Japan   YES                   Asia       1987    78.7 122091325    22376.
##  9 Japan   YES                   Asia       1992    79.4 124329269    26825.
## 10 Japan   YES                   Asia       1997    80.7 125956499    28817.
## # ℹ 278 more rows
## # ℹ 2 more variables: totalGdp <dbl>, quantileGdp <int>
…
We can also group countries by GDP into quantiles (exactly 5 groupings
from the poorest to the richest) and plot these. It is not super
meaningful chart, but exploring who is in which group at the start and
the end does point to countries’ varied economic (and political)
fortunes.

not_colonized_ntiles

## # A tibble: 288 × 9
## # Groups:   year [12]
##    Country Reasonably_Prosperous continent  year lifeExp       pop gdpPercap
##    <chr>   <chr>                 <fct>     <int>   <dbl>     <int>     <dbl>
##  1 Japan   YES                   Asia       1952    63.0  86459025     3217.
##  2 Japan   YES                   Asia       1957    65.5  91563009     4318.
##  3 Japan   YES                   Asia       1962    68.7  95831757     6577.
##  4 Japan   YES                   Asia       1967    71.4 100825279     9848.
##  5 Japan   YES                   Asia       1972    73.4 107188273    14779.
##  6 Japan   YES                   Asia       1977    75.4 113872473    16610.
##  7 Japan   YES                   Asia       1982    77.1 118454974    19384.
##  8 Japan   YES                   Asia       1987    78.7 122091325    22376.
##  9 Japan   YES                   Asia       1992    79.4 124329269    26825.
## 10 Japan   YES                   Asia       1997    80.7 125956499    28817.
## # ℹ 278 more rows
## # ℹ 2 more variables: totalGdp <dbl>, quantileGdp <int>

# How are the best and worst countries moving economically over the last 60 years?
not_colonized_summary <- not_colonized_ntiles %>% 
    arrange(desc(year)) %>% 
    group_by(year, quantileGdp) %>% 
    summarize(gdpPerGroup = sum(gdpPercap),
              meangdpPerGroup = mean(gdpPercap)) %>% 
   mutate(quantileGdp = as.factor(quantileGdp))

## `summarise()` has grouped output by 'year'. You can override using the
## `.groups` argument.

not_colonized_summary

## # A tibble: 60 × 4
## # Groups:   year [12]
##     year quantileGdp gdpPerGroup meangdpPerGroup
##    <int> <fct>             <dbl>           <dbl>
##  1  1952 1                 2183.            437.
##  2  1952 2                 4443.            889.
##  3  1952 3                 7993.           1998.
##  4  1952 4                20884.           5221.
##  5  1952 5                47684.          11921.
##  6  1957 1                 2510.            502.
##  7  1957 2                 5259.           1052.
##  8  1957 3                 8807.           2202.
##  9  1957 4                26035.           6509.
## 10  1957 5                56021.          14005.
## # ℹ 50 more rows
…
